# 3ds Max Wavefront OBJ Exporter v0.97b - (c)2007 guruware
# File Created: 16.08.2019 15:11:25

newmtl wire_224086086
	Ns 32
	d 1
	Tr 0
	Tf 1 1 1
	illum 2
	Ka 0.8784 0.3373 0.3373
	Kd 0.8784 0.3373 0.3373
	Ks 0.3500 0.3500 0.3500

newmtl wire_224198087
	Ns 32
	d 1
	Tr 0
	Tf 1 1 1
	illum 2
	Ka 0.8784 0.7765 0.3412
	Kd 0.8784 0.7765 0.3412
	Ks 0.3500 0.3500 0.3500

newmtl wire_177028149
	Ns 32
	d 1
	Tr 0
	Tf 1 1 1
	illum 2
	Ka 0.6941 0.1098 0.5843
	Kd 0.6941 0.1098 0.5843
	Ks 0.3500 0.3500 0.3500

newmtl wire_143224087
	Ns 32
	d 1
	Tr 0
	Tf 1 1 1
	illum 2
	Ka 0.5608 0.8784 0.3412
	Kd 0.5608 0.8784 0.3412
	Ks 0.3500 0.3500 0.3500

newmtl Standard_1
	Ns 10.0000
	Ni 1.5000
	d 1.0000
	Tr 0.0000
	Tf 1.0000 1.0000 1.0000 
	illum 2
	Ka 0.5880 0.5880 0.5880
	Kd 0.5880 0.5880 0.5880
	Ks 0.0000 0.0000 0.0000
	Ke 0.0000 0.0000 0.0000
